編號,資料集名稱,資料來源(部會單位),第一層級,第二層級,第三層級,資料量,下載次數,瀏覽次數,主要欄位,最後更新時間,資料集 名稱
1,新竹市政府市政新聞,行政處/資訊科,新竹市政府,,,8,,,標題、發布起始日期、發布截止日期、發布單位、類別、內容、圖片路徑-1、圖片說明-1、圖片路徑-2、圖片說明-2、圖片路徑-3、圖片說明-3、圖片路徑-4、圖片說明-4、圖片路徑-5、圖片說明-5、檔案名稱、檔案路徑、相關連結名稱、相關連結網址,,新竹市 政府 市政 新聞
2,新竹市政府市務會議紀錄,行政處/文書科,新竹市政府,,,174,,,會議記錄、開會時間、散會時間、會議內容、主席綜合裁示,,新竹市 政府 市務 會議 紀錄
3,新竹市政府網路申辦項目清單,行政處/資訊科,新竹市政府,,,53,,,承辦單位名稱、申辦項目、主題生活、生命地圖、身份角色,,新竹市 政府 網路 申辦 項目 清單
4,新竹市政府1999服務專線來電總數統計表,行政處/設計規劃科,新竹市政府,,,90,,,年、月、來電總數,,新竹市 政府 1999 服務 專線 來電 總數 統計表
5,新竹市免費無線上網熱點流量統計一覽表,行政處/資訊科,新竹市政府,,,4536,,,年/月、熱點名稱、使用人次、使用人數、總分鐘數、總流量-MB,,新竹市 免費 無線 上網 熱點 流量 統計 一覽表
6,新竹市政府1999服務專線熱門問答點閱數統計表,行政處/設計規劃科,新竹市政府,,,410,,,年度、月份、排名、知識標題、點閱次數,,新竹市 政府 1999 服務 專線 熱門 問答 點閱 數 統計表
7,公部門規費使用市民卡小額電子支付數據統計,行政處/資訊科,新竹市政府,,,680,,,機關名稱、刷卡地點、交易年月、總使用人次,,公部門 規費 使用 市民卡 小額 電子 支付 數據 統計
8,新竹市政府免費無線上網熱點地點資訊,行政處/資訊科,新竹市政府,,,132,,,機關構名稱、熱點名稱、熱點類別、縣市名稱、鄉鎮市區、地址、緯度、經度,,新竹市 政府 免費 無線 上網 熱點 地點 資訊
9,新竹市電影院名冊,行政處/公關與新聞科,新竹市政府,,,5,,,序號、電影院名稱、電話、地址、樓層、廳數,,新竹市 電影院 名冊
10,新竹市轄內有線廣播電視系統,行政處/公關與新聞科,新竹市政府,,,1,,,序號、業者名稱、營業範圍、營業住址、電話、傳真、公司網址,,新竹市 轄內 有線 廣播 電視 系統
11,各年度交通安全宣導工作執行計畫表,行政處/公關與新聞科,新竹市政府,,,36,,,機關別、項次、項目、宣導主題、託播對象/承辦廠商、宣傳期間、播出/刊登數量、經費、計畫編號,,各 年度 交通安全 宣導 工作 執行 計畫表
12,新竹市統計年報-營業基金及非營業特種基金盈虧（餘絀）,主計處/統計科,新竹市政府,,,76,,,年度別、基金項目名稱、預算數 (新臺幣千元)、決算數 (新臺幣千元),,新竹市 統計 年報 - 營業 基金 及 非 營業 特種 基金 盈虧 （ 餘絀 ）
13,新竹市統計年報-歲出預算-按政事別,主計處/統計科,新竹市政府,,,27,,,年度別 項目 總計 政權行使支出 行政支出 民政支出 財務支出 教育支出 科學支出 文化支出 農業支出 工業支出 其他經濟服務支出 社會保險支出 社會救助支出 褔利服務支出E 國民就業支出 醫療保健支出 社區發展支出 環境保護支出 退休撫卹給付支出 警政支出 債務付息支出 還本付息事務支出 專案補助支出 第二預備金 其他支出,,新竹市 統計 年報 - 歲出 預算 - 按 政事 別
14,新竹市統計年報-歲入決算-按來源別,主計處/統計科,新竹市政府,,,14,,,年度別、總計、稅課收入、罰款及賠償收入、規費收入、財產收入、營業盈餘及事業收入、補助及協助收入、捐獻及贈與收入、其他收入,,新竹市 統計 年報 - 歲入 決算 - 按 來源 別
15,新竹市統計年報-歲出決算-按政事別,主計處/統計科,新竹市政府,,,14,,,年度別、總計、政權行使支出、行政支出、民政支出、財務支出、教育支出、科學支出、文化支出、農業支出、工業支出、交通支出、其他經濟服務支出、社會保險支出、社會救助支出、褔利服務支出、國民就業支出、醫療保健支出、社區發展支出、環境保護支出、退休撫卹給付支出、警政支出、債務付息支出、還本付息事務支出、專案補助支出、其他支出,,新竹市 統計 年報 - 歲出 決算 - 按 政事 別
16,新竹市統計年報-歲入預算-按來源別,主計處/統計科,新竹市政府,,,27,,,年度別、項目、總計、稅課收入、工程受益費收入、罰款及賠償收入、規費收入、財產收入、營業盈餘及事業收入、補助及協助收入、捐獻及贈與收入、其他收入,,新竹市 統計 年報 - 歲入 預算 - 按 來源 別
17,新竹市統計年報-平均每戶家庭收支,主計處/統計科,新竹市政府,,,8,,,新竹市平均每戶所得收入、消費支出、非消費支出與可支配所得等項目,,新竹市 統計 年報 - 平均 每 戶 家庭 收支
18,新竹市政府對民間團體補(捐)助經費明細表,主計處/歲計科,新竹市政府,,,2948,,,年度、工作計畫科目名稱、補助事項或用途、補助對象、主辦機關、累計撥付金額[千元]、有無涉及財物或勞務採購、處理方式[如未涉及採購則毋須填列，如採公開招標，請填列得標廠商]、屬除外規定之民間團體、非除外規定之民間團體,,新竹市 政府 對 民間 團體 補 ( 捐 ) 助 經費 明細表
19,新竹市統計年報-歷年財政狀況,主計處/統計科,新竹市政府,,,12,,,融資調度需求、歲入歲出差短、債務還本、融資調度財源、賒借收入、移用以前年度歲計賸餘、自有財源比率、賦稅依存度、補助及協助依存度、債務未償餘額、債務未償餘額占歲出比例,,新竹市 統計 年報 - 歷年 財政 狀況
20,新竹市公立納骨堂清冊,民政處/宗教禮儀科,新竹市政府,,,3,,,殯葬設施名稱,,新竹市 公立 納骨堂 清冊
21,新竹市私立納骨塔清冊,民政處/宗教禮儀科,新竹市政府,,,2,,,編號、殯葬設施名稱、經營公司登記名稱、現任負責人、連絡電話、傳真、地址,,新竹市 私立 納骨塔 清冊
22,新竹市合法殯葬業,民政處/宗教禮儀科,新竹市政府,,,84,,,編號、殯葬業者名稱、負責人、統一編號、許可狀態、營業住址、聯絡電話1、鄉鎮市區別,,新竹市 合法 殯葬業
23,臺閩地區役政單位連絡、傳真電話一覽表,民政處/兵役科,新竹市政府,,,23,,,臺閩地區役政單位連絡、傳真電話一覽表,,臺 閩 地區 役政 單位 連絡 、 傳真 電話 一覽表
24,新兵入營訓練中心,民政處/兵役科,新竹市政府,,,23,,,國防部暨所屬新訓單位駐地郵政信箱聯絡電話一覽表,,新兵 入營 訓練 中心
25,新竹市各里集會所,民政處/自治行政科,新竹市政府,,,59,,,序號、里集會所名稱、管理單位、聯絡人、聯絡電話、集會所地址、緯度、經度、圖片URL,,新竹市 各 里集會所
26,新竹市人口統計表,民政處/戶政科,新竹市政府,,,504,,,年月、區域別、里數、鄰數、戶數、性別、人口數、遷入人數、遷出人數、出生人數、死亡人數、結婚對數、離婚對數、平地原住民、山地原住民,,新竹市 人口 統計表
27,新竹市寺廟名冊,民政處/宗教禮儀科,新竹市政府,,,167,,,新竹市寺廟名冊可供查詢資料欄位有寺廟名稱主祀神像教別組織型態寺廟所在地寺廟電話,,新竹市 寺廟 名冊
28,新竹市教會堂名冊,民政處/宗教禮儀科,新竹市政府,,,35,,,編號新竹市教會堂名冊可供查詢資料欄位有教會堂名稱董事長主事務所地址電話設立許可日期,,新竹市 教會 堂 名冊
29,新竹市里長名冊,民政處/自治行政科,新竹市政府,,,122,,,屆別，性別，職稱，性別，區別，里別，通訊地址，市內電話，行動電話,,新竹市 里長 名冊
30,新竹市鄰長名冊,民政處/自治行政科,新竹市政府,,,2159,,,屆次，區別，里別，鄰別，姓名,,新竹市 鄰長 名冊
31,新竹市各區公所調解委員會服務資訊,民政處/自治行政科,新竹市政府,,,4,,,區別、調解秘書、連絡電話、服務地址,,新竹市 各 區公所 調解 委員會 服務 資訊
32,新竹市各區沙包領取電話及地點,民政處/自治行政科,新竹市政府,,,3,,,新竹市各區沙包領取電話及地點,,新竹市 各區 沙包 領取 電話 及 地點
33,新竹市各區公所資訊,民政處/自治行政科,新竹市政府,,,8,,,區別，地址，連絡電話，負責人,,新竹市 各 區公所 資訊
34,新竹市法律扶助服務律師名單,民政處/自治行政科,新竹市政府,,,33,,,編號，姓名，事務所地址，電話，學歷，經歷,,新竹市 法律 扶助 服務 律師 名單
35,新竹市觀光工廠,產業發展處/工商科,新竹市政府,,,1,,,工廠名稱、負責人、地址、聯絡電話、網站,,新竹市 觀光 工廠
36,新竹市創意風格產業店家名冊,產業發展處/工商科,新竹市政府,,,22,,,店家名稱、電話、地址,,新竹市 創意 風格 產業 店家 名冊
37,新竹市工廠廠商名冊,產業發展處/工商科,新竹市政府,,,0,,,序號、工廠名稱、工廠地址、負責人、產業類別,,新竹市 工廠 廠商 名冊
38,新竹市各市場名冊,產業發展處/市場管理科,新竹市政府,,,13,,,鄉鎮市區 市集名稱 經營方式 地址,,新竹市 各 市場 名冊
39,新竹市攤販市集清冊,產業發展處/市場管理科,新竹市政府,,,1,,,鄉鎮市區 市集名稱 經營方式 地址,,新竹市 攤販 市集 清冊
40,新竹市受保護樹木,產業發展處/生態保育科,新竹市政府,,,82,,,編號　樹種　里別　座落地點　推估年齡(年)　樹圍(m) 樹高(m)　GPS(緯度)　GPS(經度),,新竹市 受 保護 樹木
41,新竹市漁業單位聯絡資訊,產業發展處/漁業科,新竹市政府,,,0,,,序號、單位、住址、聯絡電話,,新竹市 漁業 單位 聯絡 資訊
42,新竹市濱海野生動物保護區,產業發展處/生態保育科,新竹市政府,,,104,,,界址點號、橫座標（X）、縱座標（Y）,,新竹市 濱海 野生 動物 保護區
43,新竹市商業名冊,產業發展處/工商科,新竹市政府,,,19212,,,序號、統一編號、商業名稱、商業地址、負責人、營業項目,,新竹市 商業 名冊
44,新竹市人工魚礁禁漁區經緯度,產業發展處/漁業科,新竹市政府,,,3,,,縣市別、禁漁區名稱、中心位置、經緯度、平均水深、公告時間、範圍、座標系統,,新竹市 人工 魚礁 禁漁區 經緯度
45,新竹市自來水管承裝商,產業發展處/工商科,新竹市政府,,,0,,,序號、承裝商名稱、等級、負責人、許可證字號、狀態、營業地址,,新竹市 自來水 管承 裝商
46,新竹市電器承裝商,產業發展處/工商科,新竹市政府,,,188,,,序號、登記證字號、公司行號名稱、等級、營業地址、負責人、登記核准日期、現況,,新竹市 電器 承裝商
47,新竹市加油(氣)站,產業發展處/工商科,新竹市政府,,,39,,,編號、加油站名、公司主體、區域、住址、營業時間,,新竹市 加油 ( 氣 ) 站
49,新竹市市民農園承租資訊,產業發展處/農林畜牧科,新竹市政府,,,3,,,聯絡方式,,新竹市 市民 農園 承租 資訊
50,新竹市農會,產業發展處/農林畜牧科,新竹市政府,,,7,,,農會資訊,,新竹市 農會
53,新竹市政府暨所屬政風機構人員數,政風處/政風行政科,新竹市政府,,,4,,,政風機構數、編制員額數、現有員額總數、現有員額未在勤數、現有員額在勤數、缺額總數、缺額可派補數、缺額無法派補數,,新竹市 政府 暨 所屬 政風 機構 人員數
54,新竹市政府廉政倫理事件統計,政風處/政風行政科,新竹市政府,,,4,,,年度、受贈財物、飲宴應酬、請託關說,,新竹市 政府 廉政 倫理 事件 統計
57,新竹市家庭教育中心服務內容,家庭教育中心/一般人員,新竹市政府,,,17,,,服務項目、主題、詳細內容,,新竹市 家庭 教育 中心 服務 內容
58,新竹市家庭教育中心諮詢專線值班表,家庭教育中心/一般人員,新竹市政府,,,21,,,服務時間、時段、開放日、4128185專線值班志工老師,,新竹市 家庭 教育 中心 諮詢 專線 值班表
59,新竹市政府最新債務訊息,財政處/財務管理科,新竹市政府,,,30,,,項目、一年以上債務未償餘額、短期債務未償餘額、平均每人負擔債務、自償性債務未償餘額(含非營業特種基金),,新竹市 政府 最 新 債務 訊息
60,新竹市酒製造業者明細表,財政處/金融與菸酒管理科,新竹市政府,,,3,,,製造業者名稱、統一編號、負責人、總機構所在地、聯絡電話、產品種類、執照起始日期、製酒執照號碼,,新竹市 酒 製造 業者 明細表
61,新竹市有財產總值,財政處/公有財產科,新竹市政府,,,24,,,分類項目、筆(幢)數、面積(公頃)、金額(新台幣億元)、價值百分比,,新竹市 有 財產 總值
62,新竹市幼兒園名錄,教育處/特殊與學前教育科,新竹市政府,,,163,,,編號、學年度、學期、鄉鎮、設立別、幼兒園名稱、核准設立日期、設立許可證號、園長/園主任、幼兒園電話幼兒園住址、核定總招收人數、兼辦業務,,新竹市 幼兒園 名錄
63,新竹市終身教育學習地圖,教育處/社會教育科,新竹市政府,,,23,,,學校別、學校名稱、住址、電話1、電話2,,新竹市 終身 教育 學習 地圖
64,新竹市立國中小通訊資料,教育處/國民教育科,新竹市政府,,,53,,,學校、電話、地址,,新竹 市立 國中小 通訊 資料
65,新竹市國小學區劃分,教育處/國民教育科,新竹市政府,,,31,,,區別、校名、學區轄里-全部里鄰、學區轄里-部分里鄰,,新竹市 國小 學區 劃分
66,新竹市國中學區劃分,教育處/國民教育科,新竹市政府,,,15,,,區別、校名、學區轄里-全部里鄰、學區轄里-部分里鄰,,新竹市 國中 學區 劃分
67,新竹市各學年度國民小學普通班班級數及學生人數,教育處/國民教育科,新竹市政府,,,91,,,學年度、學校名稱、總班級數、一年級學生數、一年級班級數、二年級學生數、二年級班級數、三年級學生數、三年級班級數、四年級學生數、四年級班級數、五年級學生數、五年級班級數、六年級學生數、六年級班級數、下學年度一年級預估數學生數、下學年度一年級預估數班級數,,新竹市 各 學年度 國民小學 普通班 班級數 及 學生 人數
68,新竹市各學年度國民中學普通班班級數及學生人數,教育處/國民教育科,新竹市政府,,,45,,,學年度、學校名稱、總班級數、一年級學生數、一年級班級數、二年級學生數、二年級班級數、三年級學生數、三年級班級數、下學年度一年級預估數學生數、下學年度一年級預估數班級數,,新竹市 各 學年度 國民中學 普通班 班級數 及 學生 人數
69,新竹市已立案補習班,教育處/社會教育科,新竹市政府,,,405,,,補習班名稱、核准科目名稱、補習班住址、電話、立案文號、立案日期,,新竹市 已 立案 補習班
70,新竹市公共圖書館通訊,文化局/圖書資訊科,新竹市政府,,,7,,,序號、圖書館名稱、電話、地址,,新竹市 公共 圖書館 通訊
71,新竹市台灣工藝之家,文化局/視覺藝術科,新竹市政府,,,10,,,工作室名稱、電話、地址、E-mail,,新竹市 台灣 工藝 之 家
72,新竹市街頭藝人名單,文化局/表演藝術科,新竹市政府,,,658,,,授證號碼、姓名、藝名、組別、專長項目、通訊電話、行動電話、電子信箱或網路聯絡方式（8種欄位）,,新竹市 街頭 藝人 名單
73,新竹市演藝團體列表,文化局/表演藝術科,新竹市政府,,,50,,,團體名稱、聯絡人姓名、立案日期、表演類別、團隊類別,,新竹市 演藝 團體 列表
74,新竹市民俗一覽表,文化局/文化資產科,新竹市政府,,,1,,,名稱、保存團體、公告日期,,新竹市 民俗 一覽表
75,新竹市博物館群一覽表,文化局/博物館科,新竹市政府,,,4,,,序號、名稱、電話、地址、開館時間、休館時間、票價、經緯度,,新竹市 博物館群 一覽表
76,新竹市玻璃工藝創作者一覽表,文化局/博物館科,新竹市政府,,,98,,,編號 區別 公司 住址 電話,,新竹市 玻璃 工藝 創作 者 一覽表
77,圖書館書籍借閱量,文化局/圖書資訊科,新竹市政府,,,210,,,統計年月、館藏地、借閱人次、借閱冊數、續借人次、續借冊數、還書人次、還書冊數、預約人次、預約冊數、取消預約取消預約人次、冊數、借閱 續借人次、借閱 續借冊數,,圖書館 書籍 借閱量
78,圖書預算及採購冊數,文化局/圖書資訊科,新竹市政府,,,3,,,年度、圖書預算、購買圖書冊數,,圖書 預算 及 採購 冊數
79,新竹市古蹟一覽表,文化局/文化資產科,新竹市政府,,,36,,,種類 、古蹟名稱、地址、公告日期、經度、緯度、 圖片URL,,新竹市 古蹟 一覽表
80,新竹市歷史建築一覽表,文化局/文化資產科,新竹市政府,,,23,,,歷史建築名稱、地址、公告日期、經度、緯度、圖片URL,,新竹市 歷史 建築 一覽表
81,新竹市傳統藝術一覽表,文化局/文化資產科,新竹市政府,,,0,,,傳統藝術名稱、保存團體/保存者、公告日期,,新竹市 傳統 藝術 一覽表
82,古物一覽表,文化局/文化資產科,新竹市政府,,,9,,,106年12月29日公告,,古物 一覽表
83,新竹市地方文化館,文化局/博物館科,新竹市政府,,,8,,,館舍名稱、館舍簡介、營業時間、公休日、地址、緯度、經度、電話、票價、屬性,,新竹市 地方 文化館
84,新竹市垃圾清運路線總表,環保局/清潔科,新竹市政府,,,3235,,,編號、班別、清運路線名稱、順序、清潔公車停置地點、預估到達時間、預估離開時間、停留時間、車號、駕駛、隨車人員、回收日(星期幾),,新竹市 垃圾 清運 路線 總表
85,新竹市環保旅店資訊,環保局/綜計科,新竹市政府,,,5,,,序號、飯店名稱、電話、地址、官網,,新竹市 環保 旅店 資訊
86,新竹市綠色商店資訊,環保局/綜計科,新竹市政府,,,310,,,綠色商店編號、商店簡稱、聯絡人、聯絡地址、聯絡電話,,新竹市 綠色 商店 資訊
87,新竹市病媒防治業業者名單,環保局/綜計科,新竹市政府,,,0,,,名稱、地址、電話,,新竹市 病媒 防治業 業者 名單
88,新竹市空氣品質人工監測站,環保局/空噪科,新竹市政府,,,162,,,測站名稱、測站編號、懸浮微粒開始檢測日期(μg/m3)、懸浮微粒結束檢測日期(μg/m3)、天候、TSP、PM10、正己烷抽出物、氯鹽、硝酸鹽、硫酸鹽、鉛、落塵量開始檢測日期(公噸/平方公里/月)、落塵量結束檢測日期(公噸/平方公里/月)、數據,,新竹市 空氣 品質 人工 監測站
89,新竹市機車排氣檢驗站,環保局/空噪科,新竹市政府,,,0,,,檢驗站站號、站名、電話及地址,,新竹市 機車 排氣 檢驗站
90,新竹市電動機車充電站,環保局/空噪科,新竹市政府,,,0,,,編號、設置單位名稱、地址、站數、充電設備名稱、備註,,新竹市 電動機車 充電站
91,新竹市噪音管制區,環保局/空噪科,新竹市政府,,,0,,,管制區類別、里別、範圍,,新竹市 噪音 管制區
92,新竹市環保局柴油車排煙檢測站地址及聯絡電話,環保局/空噪科,新竹市政府,,,1,,,單位、地址、聯絡電話、預約電話、傳真電話、服務時間,,新竹市 環保局 柴油車 排煙 檢測站 地址 及 聯絡 電話
93,新竹市應回收廢棄物回收處理業及舊貨商名冊,環保局/環衛科,新竹市政府,,,0,,,編號、公司名稱、區域、聯絡電話、貯存地址、回收項目、備註,,新竹市 應 回收 廢棄物 回收 處理業 及 舊貨商 名冊
94,廢食用油回收合格清除機構名冊,環保局/廢處科,新竹市政府,,,29,,,許可證字號、機構名稱、機構地址、機構電話、有效期限,,廢食用油 回收 合格 清除 機構 名冊
95,廢棄物清除/處理機構名冊,環保局/廢處科,新竹市政府,,,96,,,級別、機構名稱、地址、電話、負責人、管制編號,,廢棄物 清除 / 處理 機構 名冊
96,新竹市河川水質監測,環保局/水土科,新竹市政府,,,169,,,河川名稱、測站名稱、採樣日期、採樣時間、氣溫(TMP)、採樣描述(選填)、溶氧量(DO)、生化需氧量(BOD5)、懸浮固體(SS)、pH值(pH)、導電度(EC)、水溫(WT)、大腸桿菌群(Coli_G)、氨氮(NH3_N)、鉛(Pb)、六價鉻(Cr6)、鎘(Cd)、銅(Cu)、鋅(Zn)、鎳(Ni),,新竹市 河川 水質 監測
97,新竹市農地土壤監測資料,環保局/水土科,新竹市政府,,,0,,,103年新竹市農地土壤定期監測資料表 ,,新竹市 農地 土壤 監測 資料
98,新竹市河川測站,環保局/水土科,新竹市政府,,,0,,,河川名稱、測站名稱、測站代碼、水體分類等級(選填)、中文地址(選填)、經度_度、經度_分、經度_秒、緯度_度、緯度_分、緯度_秒、X_座標_TWD97_121、Y_座標_TWD97_121、X_座標_TWD97_119、Y_座標_TWD97_119、X_座標_TWD97_117、Y_座標_TWD97_117、X_座標_TWD97_115、Y_座標_TW...,,新竹市 河川 測站
99,新竹市政府環境影響評估審查委員會委員名單,環保局/綜計科,新竹市政府,,,21,,,姓名、服務單位,,新竹市 政府 環境 影響 評估 審查 委員會 委員 名單
100,新竹市航空噪音防制區,環保局/空噪科,新竹市政府,,,0,,,防制區類別、範圍、里別,,新竹市 航空 噪音 防制區
101,新竹市飲水機飲水點位址,環保局/水土科,新竹市政府,,,28,,,飲水機所在地、飲水點名稱、飲水點說明、地址、開放時間、水溫(冰、溫、冷、熱)、位置(室內/室外)、樓層、廠牌、機型、備註,,新竹市 飲水機 飲水 點 位址
102,新竹市自來水供水系統直接供水點(民眾端)監測資料,環保局/水土科,新竹市政府,,,178,,,序號、稽查日期、稽查結果、檢驗地點、供水系統、檢驗結果-細菌項目、檢驗結果-一般項目、檢驗結果-重金屬一、依據107年新竹市飲用水管理稽查管制計畫辦理重金屬檢測，1採樣點每年檢測1次。二、飲用水水質標準：大腸桿菌群(MPN、CFU/100mL)：6、總菌落數(CFU/mL)：100、自由有效餘氯(mg/L)：0.2~1.0、氫離子濃度指數(PH值)：6~8.5、鉛(mg/L)：0.01、銅(mg/L)：1.0、鋅(mg/L)：5.0,,新竹市 自來水 供水 系統 直接 供水點 ( 民眾 端 ) 監測 資料
103,新竹市3處淨水廠原水檢測資料,環保局/水土科,新竹市政府,,,7,,,檢驗地點、檢驗時間、pH值、水溫、導電度、化學需氧量mg/L、鎘mg/L、鉻mg/L、氨氮mg/L、大腸桿菌群FU/100mL，註1:原水檢測系依據飲用水水源水質標準第5條檢驗項目，可執行檢驗項目檢測。,,新竹市 3 處 淨水廠 原水 檢測 資料
104,新竹市3處淨水廠清水檢測資料,環保局/水土科,新竹市政府,,,19,,,檢驗地點、檢驗時間、pH值、水溫、餘氯mg/L、鎘mg/L、鉛mg/L、鉻mg/L、銅mg/L、鋅mg/L、鎳mg/L、氨氮mg/L、大腸桿菌群CFU/100mL、總菌落數CFU/100mL，註1:清水係指經淨水處理後輸送至用戶前之水質，依據飲用水水質標準經處理後可供飲用之項目辦理檢驗作業。,,新竹市 3 處 淨水廠 清水 檢測 資料
106,新竹市懸掛羅馬旗幟廣告物路段表,環保局/環衛科,新竹市政府,,,34,,,序號	路段	區域	單位申請組數	備註,,新竹市 懸掛 羅馬 旗幟 廣告物 路段 表
107,垃圾強制分類表(資源回收物及廚餘),環保局/環衛科,新竹市政府,,,31,,,類別 分類  項目  可回收物品範例  不可回收物品範例  注意事項,,垃圾 強制 分類表 ( 資源 回收物 及 廚餘 )
108,106年新竹市資源回收統計表,環保局/環衛科,新竹市政府,,,20,,,106年新竹市資源回收細目統計表,,106 年 新竹市 資源 回收 統計表
111,新竹市醫療機構西醫地址電話名冊,衛生局/醫政科,新竹市政府,,,212,,,機構名稱、地址、負責人、聯絡電話,,新竹市 醫療 機構 西醫 地址 電話 名冊
112,新竹市護理之家名冊,衛生局/醫政科,新竹市政府,,,5,,,機構名稱、縣市別、鄉鎮市區、街道巷弄號、機構代碼、機構狀態、權屬別、型態別、負責人、負責人電話1、負責人電話2,,新竹市 護理 之 家 名冊
113,新竹市產後護理之家名冊,衛生局/醫政科,新竹市政府,,,7,,,機構名稱、縣市別、鄉鎮市區、街道巷弄號、機構代碼、機構狀態、權屬別、型態別、負責人、負責人電話,,新竹市 產 後 護理 之 家 名冊
114,新竹市AED心臟電擊器設置地點,衛生局/醫政科,新竹市政府,,,165,,,場所編號、場所名稱、場所地址、場所類型、AED放置地點、AED地點描述、管理員姓名、連絡電話、設置日期、保固期限、代理商名稱,,新竹市 AED 心臟 電擊器 設置 地點
115,新竹市高齡友善銀行,衛生局/企劃科,新竹市政府,,,32,,,認證年度、機關單位、分行、區別、地址、電話,,新竹市 高齡 友善 銀行
116,新竹市依法設置哺集乳室名單,衛生局/國民健康科,新竹市政府,,,41,,,編號、公共場所名稱、地址、電話、緯度、經度,,新竹市 依法 設置 哺集乳室 名單
117,新竹市門診戒菸合約醫療院所名冊,衛生局/國民健康科,新竹市政府,,,61,,,序號、院所名稱、電話、地址,,新竹市 門診 戒菸 合約 醫療院所 名冊
118,新竹市健康盒餐業者名冊,衛生局/國民健康科,新竹市政府,,,10,,,編號、認證年度、有效期限、業者名稱、營業地址、緯度、經度、連絡電話,,新竹市 健康 盒餐 業者 名冊
119,新竹市遠距健康照護站139站名冊,衛生局/國民健康科,新竹市政府,,,139,,,單位名稱 地址,,新竹市 遠距 健康 照護站 139 站 名冊
120,新竹市藥局(含健保藥局)名冊,衛生局/食品藥物管理科,新竹市政府,,,141,,,包含負責人姓名、藥局名稱、地址、電話、傳真,,新竹市 藥局 ( 含 健保 藥局 ) 名冊
121,新竹市流感疫苗合約院所名冊,衛生局/疾病管制科,新竹市政府,,,74,,,十碼章、醫院名稱、縣市別、行政區、郵遞區號、地址、	連絡電話、備註、建立日期、	更新日期,,新竹市 流感 疫苗 合約 院所 名冊
122,新竹市流感抗病毒藥劑院所名冊,衛生局/疾病管制科,新竹市政府,,,74,,,十碼章、醫院名稱、縣市別、行政區、郵遞區號、地址、連絡電話、座標緯度、座標經度、備註、建立日期、更新日期,,新竹市 流感 抗病毒藥 劑 院所 名冊
123,新竹市幼童公費常規疫苗,衛生局/疾病管制科,新竹市政府,,,0,,,疫苗中文名稱、疫苗英文簡稱、接種時程、劑次、接種禁忌,,新竹市 幼童 公費 常規 疫苗
124,新竹市國中小高中職學校周邊人行道禁菸範圍表,衛生局/國民健康科,新竹市政府,,,58,,,行政區、學校名稱、禁菸範圍,,新竹市 國中小 高中職 學校 周邊 人行道 禁菸 範圍 表
125,新竹市預防接種合約院所名冊,衛生局/疾病管制科,新竹市政府,,,39,,,序號、合約醫療院所名稱、十碼章、電話、地址,,新竹市 預防 接種 合約 院所 名冊
126,新竹市衛生局食品抽驗合格名單,衛生局/食品藥物管理科,新竹市政府,,,940,,,類別、檢體名稱、製造廠商名稱、製造廠商地址、製造廠商電話、抽驗日期、抽驗地點、抽驗地點地址、抽驗地點電話、檢驗結果,,新竹市 衛生局 食品 抽驗 合格 名單
127,新竹市愛滋匿名篩檢機構名單,衛生局/疾病管制科,新竹市政府,,,0,,,機構名稱、地址、電話、服務時間,,新竹市 愛滋 匿名 篩檢 機構 名單
128,新竹市針具及保險套販賣點名單,衛生局/疾病管制科,新竹市政府,,,6,,,類別、區別、販賣機設置地點、電話、地址、販售價格,,新竹市 針具 及 保險套 販賣點 名單
129,新竹市預防愛滋廢棄針具回收點名單,衛生局/疾病管制科,新竹市政府,,,4,,,區別、安裝地點名稱、地址,,新竹市 預防 愛滋 廢棄 針具 回收點 名單
130,新竹市預防愛滋諮詢服務點名單,衛生局/疾病管制科,新竹市政府,,,15,,,分類、清潔針具執行點名稱、電話、地址,,新竹市 預防 愛滋 諮詢 服務 點 名單
131,新竹市中醫診所名冊,衛生局/醫政科,新竹市政府,,,73,,,機構名稱、地址、負責人、聯絡電話,,新竹市 中醫 診所 名冊
132,新竹市醫療機構牙醫診所名冊,衛生局/醫政科,新竹市政府,,,142,,,醫療機構名稱、地址、負責人、聯絡電話,,新竹市 醫療 機構 牙醫 診所 名冊
133,新竹市反毒資訊區,衛生局/心理健康及毒品防制科,新竹市政府,,,51,,,項目名稱、單位名稱、電話、地址、備註,,新竹市 反毒 資訊 區
134,新竹市游泳池水質檢驗情形,衛生局/疾病管制科,新竹市政府,,,22,,,日期、名稱、檢體編號1、檢體編號2、餘氯、餘氯結果判定、總菌落數、總菌落數結果判定、大腸桿菌、大腸桿菌結果判定、備註,,新竹市 游泳池 水質 檢驗 情形
135,新竹市衛生局餐飲衛生管理分級評核名單,衛生局/食品藥物管理科,新竹市政府,,,288,,,每年度餐飲衛生管理分級評核活動優良名單,,新竹市 衛生局 餐飲 衛生 管理 分級 評核 名單
136,新竹市衛生局食品複驗名單,衛生局/食品藥物管理科,新竹市政府,,,11,,,新竹市衛生局食品複驗名單,,新竹市 衛生局 食品 複驗 名單
137,新竹市衛生局專案抽驗名單,衛生局/食品藥物管理科,新竹市政府,,,404,,,新竹市衛生局專案抽驗名單,,新竹市 衛生局 專案 抽驗 名單
138,新竹市水療池水質檢驗情形,衛生局/疾病管制科,新竹市政府,,,26,,,日期、名稱、檢體編號1、檢體編號2、總菌落數、總菌落數結果判定、大腸桿菌、大腸桿菌結果判定、備註,,新竹市 水療池 水質 檢驗 情形
139,新竹市水質複查情形,衛生局/疾病管制科,新竹市政府,,,2,,,日期、名稱、檢體編號1、檢體編號2、餘氯、餘氯結果判定、總菌落數、總菌落數結果判定、大腸桿菌、大腸桿菌結果判定、備註,,新竹市 水質 複查 情形
140,新竹市急救責任醫院小兒科醫師駐診時間,衛生局/醫政科,新竹市政府,,,34,,,星期別、時間、醫院名稱、地址、緯度、經度,,新竹市 急救 責任 醫院 小兒科 醫師 駐診 時間
141,新竹市乳房攝影合約醫院,衛生局/國民健康科,新竹市政府,,,5,,,醫院名稱、地址、電話、緯度、經度、營業時間,,新竹市 乳房 攝影 合約 醫院
142,新竹市中度級以上急救責任醫院,衛生局/醫政科,新竹市政府,,,5,,,醫事機構代碼、醫療機構、評量等級、地址、電話、連結網址,,新竹市 中度級 以上 急救 責任 醫院
143,24小時母乳諮詢專線,衛生局/國民健康科,新竹市政府,,,8,,,值班日、服務時間、輪值單位、聯絡人、備註,,24 小時 母乳 諮詢 專線
144,新生兒聽力篩檢醫療機構資格審查通過名單,衛生局/國民健康科,新竹市政府,,,307,,,編號、縣市、醫事機構代碼、醫療院所名稱、郵遞區號、地址,,新生兒 聽力 篩檢 醫療 機構 資格 審查 通過 名單
145,嬰幼兒各項疫苗接種適合年齡及禁忌,衛生局/疾病管制科,新竹市政府,,,22,,,疫苗種類、劑別、適合接種年齡、禁忌,,嬰幼兒 各 項 疫苗 接種 適合 年齡 及 禁忌
146,新竹市各區衛生所辦理各項疫苗接種時間表,衛生局/疾病管制科,新竹市政府,,,30,,,服務項目、服務日、服務時間、行政區、單位名稱、電話、地址、緯度、經度、備註,,新竹市 各區 衛生所 辦理 各 項 疫苗 接種 時間表
147,新竹市加水站名冊,衛生局/食品藥物管理科,新竹市政府,,,58,,,加水站名稱、地址、緯度、經度、水源、管理人、聯絡電話、許可證字號、許可證有效期限,,新竹市 加 水站 名冊
148,新竹市政府捐血中心,衛生局/醫政科,新竹市政府,,,0,,,捐血地點名稱、作業時間、電話、地址、緯度、經度,,新竹市 政府 捐血 中心
149,新生兒聽力確診醫院通過資格審查名單,衛生局/國民健康科,新竹市政府,,,54,,,編號、縣市、醫事機構代碼、醫療機構名稱、郵遞區號、地址,,新生兒 聽力 確診 醫院 通過 資格 審查 名單
150,新竹市警察機關資料,警察局/資訊科,新竹市政府,,,0,,,單位、郵遞區號、地址、電話、X軸座標、Y軸座標,,新竹市 警察 機關 資料
151,新竹市錄影監視系統設置地點,警察局/資訊科,新竹市政府,,,0,,,編號、攝影機地點,,新竹市 錄影 監視 系統 設置 地點
152,新竹市違規自動照相固定桿設置地點,警察局/資訊科,新竹市政府,,,55,,,地點、限速(km/h)、經度、緯度,,新竹市 違規 自動 照相 固定桿 設置 地點
153,新竹市固定桿違規舉發統計,警察局/資訊科,新竹市政府,,,778,,,年份、月份、違規地點、件數,,新竹市 固定桿 違規 舉發 統計
154,新竹市交通違規取締統計,警察局/資訊科,新竹市政府,,,28,,,年度、月份、酒醉駕車、闖紅燈、一般超速、嚴重超速、闖單行道、轉彎未依規定、機車行駛禁行機車道、機車不依規兩段式轉彎、攤架取締沒入、自行車違規、淨牌、違規停車攔查、違規停車逕舉、無照駕駛、未戴安全帽、未繫安全帶、不依規撥接行動電話、超載、載運危險物品不依規定、違規超車、汽車佔用停等區、其他違規,,新竹市 交通 違規 取締 統計
155,新竹市警察局每月交通事故統計,警察局/資訊科,新竹市政府,,,28,,,年度、月份、A1件數、A1死亡、A1受傷、A2件數、A2受傷、A3件數,,新竹市 警察局 每月 交通 事故 統計
156,新竹市拖吊場保管場資訊,警察局/資訊科,新竹市政府,,,0,,,拖吊場名稱、地址、緯度、經度、電話、服務時間,,新竹市 拖吊場 保管場 資訊
157,新竹市保全公司業者名冊,警察局/資訊科,新竹市政府,,,0,,,公司名稱、郵遞區號、營業處所、聯絡電話,,新竹市 保全 公司 業者 名冊
158,新竹市代收稅款金融機構服務據點,稅務局/資訊管理科,新竹市政府,,,105,,,序號、單位名稱、地址 、電話,,新竹市 代收 稅款 金融 機構 服務 據點
159,新竹市稅務局保管個資項目彙整表,稅務局/稅務管理科,新竹市政府,,,255,,,個人資料檔案名稱、保有依據、個人資料類別、保管單位,,新竹市 稅務局 保管 個資 項目 彙整 表
160,新竹市房屋位置所在段落等級表,稅務局/房屋稅科,新竹市政府,,,538,,,街路名稱、起點、訖點、級別(1-14級，級別數越高段落等級越低)、段落等級(%),,新竹市 房屋 位置 所在 段落 等級 表
161,新竹市娛樂稅徵收率,稅務局/消費稅科,新竹市政府,,,0,,,項目、徵收率,,新竹市 娛樂稅 徵收率
162,新竹市印花稅課徵範圍、稅率及納稅義務人,稅務局/消費稅科,新竹市政府,,,0,,,憑證名稱、說明、稅率或稅額、納稅義務人,,新竹市 印花稅 課徵 範圍 、 稅率 及 納稅 義務人
163,新竹市使用牌照稅分類稅額表,稅務局/消費稅科,新竹市政府,,,0,,,汽缸總排氣量(立方公分)、自用(全年稅額/元)、營業用(全年稅額/元)、營業用(半年稅額/元),,新竹市 使用 牌照稅 分類 稅額 表
164,新竹市房屋標準單價表,稅務局/房屋稅科,新竹市政府,,,420,,,構造別、總層數、第一類(各種用途)、第二類(各種用途)、第三類(各種用途)、第四類(各種用途),,新竹市 房屋 標準 單價 表
165,新竹市各類房屋折舊標準表,稅務局/房屋稅科,新竹市政府,,,20,,,構造別、代號、折舊率、耐用年數、殘值率,,新竹市 各 類 房屋 折舊 標準表
166,新竹市地價稅累進起點地價及課稅級距表,稅務局/地價稅科,新竹市政府,,,42,,,年度、級距、課稅地價下限(元)、課稅地價上限(元)、累進差額(元)、稅率(‰),,新竹市 地價稅 累進 起點 地價 及 課稅 級距 表
167,新竹市民眾繳稅管道利用情形,稅務局/資訊管理科,新竹市政府,,,8,,,年度、自動櫃員機、網際網路、電話語音、便利商店、晶片金融卡、信用卡、臨櫃,,新竹市 民眾 繳稅 管道 利用 情形
168,新竹市各年度地方稅實徵情況,稅務局/會計室,新竹市政府,,,8,,,年度、地價稅、土地增值稅、房屋稅、使用牌照稅、契稅、印花稅、娛樂稅,,新竹市 各 年度 地方稅 實徵 情況
169,新竹市最近6年土地增值稅稅源統計表,稅務局/機會稅科,新竹市政府,,,18,,,年度別、稅種、筆數、面積、移轉現值、調整後原地價、改良土地費用、漲價總數額、長期持有減徵、查定稅額、增繳地價抵繳、重劃減徵、徵收減徵、其他減徵、應納稅額,,新竹市 最近 6 年 土地 增值稅 稅源 統計表
170,新竹市最近6年契稅綜合統計表,稅務局/機會稅科,新竹市政府,,,6,,,年度別、應稅件數、免稅件數、應稅契價、免稅契價、應稅稅額、免稅稅額,,新竹市 最近 6 年 契稅 綜合 統計表
171,新竹市最近5年地價稅稅源統計表,稅務局/地價稅科,新竹市政府,,,5,,,年度別、總計戶數、總計面積、總計地價、總計查定稅額、一般用地戶數、一般用地面積、一般用地地價、一般用地查定稅額、自用住宅用地戶數、自用住宅用地面積、自用住宅用地地價、自用住宅用地查定稅額、勞工宿舍用地戶數、勞工宿舍用地面積、勞工宿舍用地地價、勞工宿舍用地查定稅額、事業直接使用土地戶數、事業直接使用土地面積、事業直接使用土地地價、事業直接使用土地查定稅額...,,新竹市 最近 5 年 地價稅 稅源 統計表
172,新竹市最近5年房屋稅綜合統計表,稅務局/房屋稅科,新竹市政府,,,0,,,年度別、合計戶數、應稅戶數、免稅戶數、應稅面積、免稅面積、應稅現值、免稅現值、合計稅額、本稅稅額,,新竹市 最近 5 年 房屋稅 綜合 統計表
173,106年度新竹市稅務局官方網站滿意度問卷調查原始資料,稅務局/服務科,新竹市政府,,,3516,,,性別、年齡、學歷、職業類別、請問，您目前是不是住新竹市？、請問，您是否曾經造訪過新竹市稅務局的網站？、請問，您瀏覽新竹市稅務局網站頻率大約為？、請問，您瀏覽新竹市稅務局網站的目的為何？（可複選，不限項目）、請問，您瀏覽新竹市稅務局網站的時段主要為何？、請問，您瀏覽新竹市稅務局網站使用的工具主要為何？、新竹市稅務局網站的線上申辦流程，在操作上是便利的。,,106 年度 新竹市 稅務局 官方 網站 滿意度 問卷 調查 原始 資料
174,新竹市各項稅收稽徵成本,稅務局/會計室,新竹市政府,,,8,,,新竹市各項稅收稽徵成本,,新竹市 各 項 稅收 稽徵 成本
175,新竹市公立殯葬設施資訊,殯葬管理所/服務組,新竹市政府,,,0,,,園區名稱(Name)、地址(Address)、經度(TWD97)(TWD97Lon)、緯度(TWD97)(TWD97Lat)、電話(Tel.)、服務時間(ServiceHours)、發布機關(PublishAgency),,新竹市 公立 殯葬 設施 資訊
176,新竹市殯葬管理所殯儀館各項設施使用人次統計表,殯葬管理所/服務組,新竹市政府,,,12,,,年度.月份.殯儀館各項設施使用人次.(註:月結統計),,新竹市 殯葬 管理所 殯儀館 各 項 設施 使用 人次 統計表
177,新竹市殯葬管理所火化場使用人次統計表,殯葬管理所/服務組,新竹市政府,,,12,,,年度.月份.火化場使用人次.(註:月結統計),,新竹市 殯葬 管理所 火化場 使用 人次 統計表
178,新竹市殯葬管理所納骨堂使用人次統計表,殯葬管理所/服務組,新竹市政府,,,12,,,年度.月份.納骨堂使用人次.(註:月結統計),,新竹市 殯葬 管理所 納骨堂 使用 人次 統計表
179,新竹市殯葬管理所辦理公墓人次統計表,殯葬管理所/服務組,新竹市政府,,,12,,,年度.月份.辦理公墓人次.(註:月結統計),,新竹市 殯葬 管理所 辦理 公墓 人次 統計表
180,新竹市滅火器藥劑更換及充填合格廠商,消防局/災害預防科,新竹市政府,,,1,,,編號、縣市別、廠商名稱、地址、電話、負責人、證書號碼、證書有效期限、執行業務範圍、備註,,新竹市 滅火器 藥劑 更換 及 充填 合格 廠商
181,新竹市消防局消防分隊駐地位置座標,消防局/行政科,新竹市政府,,,14,,,單位名稱、GPS TWD67 X座標、GPS TWD67 Y座標,,新竹市 消防局 消防 分隊 駐地 位置 座標
182,新竹市消防局各單位通訊錄,消防局/行政科,新竹市政府,,,14,,,單位名稱、地址、電話,,新竹市 消防局 各 單位 通訊錄
183,新竹市消防區巷弄清冊,消防局/災害搶救科,新竹市政府,,,346,,,轄區別、巷弄道路地址、巷弄寬度、巷弄長度,,新竹市 消防 區 巷弄 清冊
184,新竹市燃氣熱水器承裝業證書名冊,消防局/災害預防科,新竹市政府,,,55,,,序號、承裝業名稱、承裝之登記證號、公司或商業登記證號、公司或商業登記地址、營業場所地址、連絡電話、負責人姓名、發證日期、備註,,新竹市 燃氣 熱水器 承裝業 證書 名冊
185,新竹市燃氣熱水器承裝業技術士名冊,消防局/災害預防科,新竹市政府,,,65,,,序號、承裝業名稱、營業場所地址、負責人姓名、技術士姓名、任職日期、最近一次受訓日期、離職日期、地址、電話、備註,,新竹市 燃氣 熱水器 承裝業 技術士 名冊
186,新竹市火災案件統計表,消防局/火災調查科,新竹市政府,,,54,,,年度、月份、火災次數總計、縱火、自殺、燈燭、爐火烹調、敬神掃墓祭祖、菸蒂、電氣因素、機械設備、玩火、烤火、施工不慎、易燃品自燃(復燃)、瓦斯漏氣或爆炸、化學物品、燃放爆竹、交通事故、天然災害、遺留火種、原因不明、其他、死亡人數、受傷人數、房屋損失(千元)、財物損失(千元)、合計(千元),,新竹市 火災 案件 統計表
187,新竹市消防安全檢查重大不合格場所,消防局/災害預防科,新竹市政府,,,6,,,場所名稱、場所地點、檢查結果、檢查日期,,新竹市 消防 安全 檢查 重大 不 合格 場所
188,新竹市消防局119受理案件統計分析,消防局/電訊室,新竹市政府,,,54,,,年度、月份、火警件數、民眾死亡、民眾受傷、財產損失(萬元)、救護件數、救護人數、為民服務,,新竹市 消防局 119 受理 案件 統計 分析
189,新竹市消防栓清冊,消防局/災害搶救科,新竹市政府,,,1853,,,消防栓編號、型式、設置地點,,新竹市 消防栓 清冊
190,新竹市防焰性能認證廠商,消防局/災害預防科,新竹市政府,,,26,,,證書號碼、公司名稱、認證登錄號碼、業別、廠商狀況、停發標示原因、負責人姓名、公司地址所在地、聯絡地址、聯絡電話,,新竹市 防焰 性能 認證 廠商
191,新竹市各級工會團體組織名冊,勞工處/勞資關係科,新竹市政府,,,165,,,編號、團體名稱、負責人、聯絡電話、聯絡地址,,新竹市 各級 工會 團體 組織 名冊
192,新竹市庇護工場名冊,勞工處/就業服務科,新竹市政府,,,3,,,序號、庇護工場名稱、負責人、電話、地址、營業時間,,新竹市 庇護 工場 名冊
193,新竹市視障按摩院所及小棧名冊,勞工處/就業服務科,新竹市政府,,,30,,,編號、執業處所名稱、地址、電話、營業時間,,新竹市 視障 按摩院 所及 小棧 名冊
194,勞動部勞動力發展署就業服務據點資訊,勞工處/就業服務科,新竹市政府,,,2,,,序號、名稱、負責人、電話、地址、服務時間,,勞動部 勞動力 發展署 就業 服務 據點 資訊
195,產業及社福外籍勞工人數,勞工處/就業服務科,新竹市政府,,,29,,,年度、月份、產業外籍勞工-印尼、產業外籍勞工-馬來西亞、產業外籍勞工-菲律賓、產業外籍勞工-泰國、產業外籍勞工-越南、產業外籍勞工-蒙古、產業外籍勞工-其他、社福外籍勞工-印尼、社福外籍勞工-馬來西亞、社福外籍勞工-菲律賓、社福外籍勞工-泰國、社福外籍勞工-越南、社福外籍勞工-蒙古、社福外籍勞工-其他,,產業 及 社福 外籍 勞工 人數
196,新竹市失業狀況,勞工處/就業服務科,新竹市政府,,,4,,,年度 上/下年 失業人數 失業率,,新竹市 失業 狀況
197,新竹市勞動狀況,勞工處/就業服務科,新竹市政府,,,3,,,年度 上/下年 勞動力人數 勞動參與率,,新竹市 勞動 狀況
198,新竹市不動產經紀業清冊,地政處/地價科,新竹市政府,,,133,,,登錄號碼、統一編號、營利登記證號、經紀業名稱、許可日期1、許可文號1、許可日期2、許可文號2、設立備查日期、設立備查文號、地址、電話1、電話2、傳真、加盟經營，加盟公司名稱、組織型態、營業項目，不動產仲介經紀業、營業項目，不動產代銷經紀業、經營國外不動產仲介或代銷業務、負責人姓名、加入公會名稱1、加入公會名稱2、個人資料檔案安全維護計畫、執業狀態,,新竹市 不動產 經紀業 清冊
199,新竹市不動產實價登錄資訊-租賃案件,地政處/地價科,新竹市政府,,,2754,,,鄉鎮市區、交易標的、土地區段位置/建物區段門牌、土地租賃總面積[平方公尺]、使用分區或編定、非都市土地使用分區、非都市土地使用地、交易年月、交易筆棟數、移轉層次、總樓層數、建物型態、主要用途、主要建材、建築完成年月、現況格局-房、現況格局-廳、現況格局-衛、現況格局-隔間、有無管理組織、月租[元]、單價[元/平方公尺]、車位類別、車位租賃總面積[平方公...,,新竹市 不動產 實價 登錄 資訊 - 租賃 案件
200,新竹市不動產實價登錄資訊-預售屋案件,地政處/地價科,新竹市政府,,,1847,,,鄉鎮市區、交易標的、土地區段位置/建物區段門牌、土地移轉總面積[平方公尺]、使用分區或編定、非都市土地使用分區、非都市土地使用地、交易年月、交易筆棟數、移轉層次、總樓層數、建物型態、主要用途、主要建材、建物移轉總面積[平方公尺]、現況格局-房、現況格局-廳、現況格局-衛、現況格局-隔間、有無管理組織、總價[元]、單價[元/平方公尺]、車位類別、車位移轉...,,新竹市 不動產 實價 登錄 資訊 - 預售屋 案件
201,新竹市公告現值及公告地價清單,地政處/地價科,新竹市政府,,,201013,,,地段名、地號、公告現值、公告地價,,新竹市 公告 現值 及 公告 地價 清單
202,新竹市不動產實價登錄資訊-買賣案件,地政處/地價科,新竹市政府,,,44039,,,鄉鎮市區、交易標的、土地區段位置/建物區段門牌、土地移轉總面積[平方公尺]、使用分區或編定、非都市土地使用分區、非都市土地使用地、交易年月、交易筆棟數、移轉層次、總樓層數、建物型態、主要用途、主要建材、建物移轉總面積[平方公尺]、現況格局-房、現況格局-廳、現況格局-衛、現況格局-隔間、有無管理組織、總價[元]、單價[元/平方公尺]、車位類別、車位移轉...,,新竹市 不動產 實價 登錄 資訊 - 買賣 案件
203,新竹市政府特約廠商一覽表,人事處/退撫給與科,新竹市政府,,,154,,,入編號、類別、公司商號、住址、電話、優惠項目,,新竹市 政府 特約 廠商 一覽表
204,新竹市抽水站資訊,工務處/下水道科,新竹市政府,,,0,,,抽水站名稱、建造日期(年)、地址、水系、設備,,新竹市 抽水站 資訊
205,新竹市污水下水道用戶接管率,工務處/下水道科,新竹市政府,,,39,,,新竹市總人口數、新竹市總戶數、污水下水道用戶接管戶數、接管率(%)、備註,,新竹市 污水 下水道 用戶 接管率
206,新竹市中央管轄河川資料,工務處/下水道科,新竹市政府,,,0,,,管理機關、水系別、發源地、流經縣市、出海地、流域面積(平方公里)、幹流長度(公里),,新竹市 中央 管轄 河川 資料
207,新竹市轄內6公尺以上橋梁資料,工務處/養護工程科,新竹市政府,,,0,,,橋名、橋長、位置,,新竹市 轄內 6 公尺 以上 橋梁 資料
208,新竹市區域排水資料,工務處/下水道科,新竹市政府,,,0,,,縣市、管理機關、排水路名稱、排水出口、權責起點、權責終點、長度(公里),,新竹市 區域 排水 資料
209,新竹市道路鋪設柏油工程,工務處/養護工程科,新竹市政府,,,0,,,新竹市道路鋪設柏油工程預計路段說明,,新竹市 道路 鋪設 柏油 工程
210,新竹市寬頻管道建置計劃資料,工務處/養護工程科,新竹市政府,,,0,,,新竹市寬頻管道建置各路段起訖,,新竹市 寬頻 管道 建置 計劃 資料
211,新竹市合法建築師名冊,都市發展處/建築管理科,新竹市政府,,,62,,,序號、建築師姓名、會員證字號、最高學歷、開業證字號、事務所名稱、電話、傳真、所址、通訊地址、電子信箱,,新竹市 合法 建築師 名冊
212,新竹市公有道路路燈資料,工務處/養護工程科,新竹市政府,,,28762,,,路燈編號、地址及經緯度座標等資訊,,新竹市 公有 道路 路燈 資料
213,新竹市人行道管理,工務處/養護工程科,新竹市政府,,,678,,,人行道最小調查單元流水號、道路名稱、道路_起點、道路_迄點、人行道方向、道路_長度(中心線長度)(公尺)、道路寬度(包含雙向人行道)(公尺)、車道寬度(不含人行道)(公尺)、人行道長度(公尺)、人行道總寬度(公尺)、人行道公共設施帶寬度(公尺)、行人通行總寬度(公尺)、人行道淨寬(公尺)、鋪面類型、人行道面積(平方公尺)、人行道上設施物所佔面積(平方公尺)、人行道固定桿類設施數量(數量)、人行道固定箱類設,,新竹市 人行道 管理
214,新竹市地下道,工務處/養護工程科,新竹市政府,,,14,,,編號、名稱、位置、緯度、經度、竣工日期、最低高度(M)、寬度(M)、長度(M)、種類/功用、通行方向、跨越物(道路/鐵路/其他),,新竹市 地下道
215,新竹市動物用藥品販賣機構,動物保護及防疫所/一般同仁,新竹市政府,,,0,,,商號名稱、負責人、營業所地址、電話、藥品管理技術人、備註,,新竹市 動物 用 藥品 販賣 機構
216,新竹市動物醫院,動物保護及防疫所/一般同仁,新竹市政府,,,31,,,縣市、執照類別、狀態、機構名稱、負責獸醫、機構電話、機構地址,,新竹市 動物 醫院
217,新竹市特定寵物業,動物保護及防疫所/一般同仁,新竹市政府,,,32,,,編號、寵物店名稱、負責人、地址、電話,,新竹市 特定 寵物業
218,新竹市寵物登記站,動物保護及防疫所/一般同仁,新竹市政府,,,28,,,編號、寵物店名稱、負責人、地址、電話,,新竹市 寵物 登記站
219,新竹市棄犬收容中心名冊,動物保護及防疫所/一般同仁,新竹市政府,,,1,,,收容中心名稱、地址、電話、緯度、經度、開放時間,,新竹市 棄犬 收容 中心 名冊
220,新竹市身心障礙福利機構名冊,社會處/身心障礙福利科,新竹市政府,,,6,,,序號、單位名稱、負責人、聯絡人、電話、傳真、地址,,新竹市 身心 障礙 福利 機構 名冊
221,新竹市社區發展協會名冊,社會處/社會行政科,新竹市政府,,,119,,,新竹市東區 北區 香山區之社區發展協會名冊,,新竹市 社區 發展 協會 名冊
222,新竹市發展遲緩兒童早期療育單位清單,社會處/身心障礙福利科,新竹市政府,,,8,,,療育單位名稱、地址、電話、聯絡人、療育項目、付費方式,,新竹市 發展 遲緩 兒童 早期 療育 單位 清單
223,新竹市私立托嬰中心名冊,社會處/婦女兒童少年福利科,新竹市政府,,,60,,,編號、中心名稱、負責人、住址、電話01、電話02、核准文號,,新竹市 私立 托嬰 中心 名冊
224,新竹市居家托育服務中心名冊,社會處/婦女兒童少年福利科,新竹市政府,,,3,,,編號、系統名稱、住址、 電話01、電話02、電話03、服務範圍、系統網址、緯度、經度、圖片、URL,,新竹市 居家 托育 服務 中心 名冊
225,新竹市婦女團體名冊,社會處/婦女兒童少年福利科,新竹市政府,,,0,,,序號 團體名稱 地址 電話,,新竹市 婦女 團體 名冊
226,新竹市青少年館參觀資訊,文化局/藝文推廣科,新竹市政府,,,1,,,序號、館舍名稱、地址、電話、開放時間、休館時間、館舍規範,,新竹市 青少年館 參觀 資訊
227,新竹市避難收容處所及人數,社會處/社會救助與老人福利科,新竹市政府,,,60,,,編號、鄉鎮市(區)、收容場所名稱、預估收容人數、管理人、聯絡電話、手機、地址、應收容里別、緯度、經度,,新竹市 避難 收容 處所 及 人數
228,新竹市老人福利機構一覽表,社會處/社會救助與老人福利科,新竹市政府,,,11,,,新竹市老人福利機構名冊,,新竹市 老人 福利 機構 一覽表
229,新竹市社區照顧關懷據點名冊,社會處/社會行政科,新竹市政府,,,34,,,編號、單位名稱、聯絡人、職稱、聯絡電話、開站時間、地址,,新竹市 社區 照顧 關懷 據點 名冊
230,新竹市新住民服務資源,社會處/婦女兒童少年福利科,新竹市政府,,,3,,,編號 名稱 聯繫電話 地址 服務時間 服務項目 服務對象,,新竹市 新住民 服務 資源
231,桃竹苗區健保特約兒童復健療育單位,社會處/身心障礙福利科,新竹市政府,,,28,,,兒童復健療癒單位,,桃竹苗區 健保 特約 兒童 復健 療育 單位
232,桃竹苗區兒童發展聯合評估中心,社會處/身心障礙福利科,新竹市政府,,,28,,,桃竹苗區兒童發展聯合評估中心,,桃竹苗區 兒童 發展 聯合 評估 中心
233,特殊境遇家庭兒童托育津貼,社會處/婦女兒童少年福利科,新竹市政府,,,12,,,特殊境遇家庭兒童托育津貼統計資料,,特殊 境遇 家庭 兒童 托育 津貼
234,兒少安置教養機構設施名冊,社會處/婦女兒童少年福利科,新竹市政府,,,2,,,區域、機構名稱、地址、電話、網址、負責人、立案時間(設立時間)、主要服務事項、核准收容床數,,兒少 安置 教養 機構 設施 名冊
235,兒少安置教養機構營運概況,社會處/婦女兒童少年福利科,新竹市政府,,,2,,,機構名稱、核准收容床數、目前收容人數,,兒少 安置 教養 機構 營運 概況
236,長青學苑相關資料,社會處/社會救助與老人福利科,新竹市政府,,,2,,,班級數、活動地址,,長青 學苑 相關 資料
237,新竹市街友安置及餐食機構一覽表,社會處/社會救助與老人福利科,新竹市政府,,,3,,,新竹市遊民安置及餐食機構一覽表,,新竹市 街友 安置 及 餐食 機構 一覽表
238,呷熊飽餐券餐食服務計畫,社會處/社會救助與老人福利科,新竹市政府,,,18,,,呷熊飽餐券兌換地點,,呷 熊飽 餐券 餐食 服務 計畫
239,新竹市早安飽貝餐食服務,社會處/社會救助與老人福利科,新竹市政府,,,36,,,早安飽貝餐券兌換商店,,新竹市 早安 飽貝 餐食 服務
240,新竹市長青樂活健康食堂,社會處/社會行政科,新竹市政府,,,48,,,行政區、據點名稱、地址、共餐時間,,新竹市 長青 樂活 健康 食堂
241,社服團體名冊,社會處/社會行政科,新竹市政府,,,330,,,團體名稱、理事長、電話1、電話2、電話3、會址、備註,,社服 團體 名冊
242,新竹市就業者家庭部分托育費用補助申請受理單位,社會處/婦女兒童少年福利科,新竹市政府,,,62,,,提供新竹市就業者家庭部分托育費用補助申請受理單位,,新竹市 就 業者 家庭 部 分 托育 費用 補助 申請 受理 單位
243,新竹市社會福利館舍資訊,社會處/婦女兒童少年福利科,新竹市政府,,,5,,,新竹市社會福利館舍資訊,,新竹市 社會 福利 館舍 資訊
244,新竹市輔具服務單位,社會處/身心障礙福利科,新竹市政府,,,1,,,性質	主管機關	單位名稱	辦理單位	連絡電話,,新竹市 輔具 服務 單位
245,新竹市立體育場所屬運動場館租借及使用情形,市立體育場/一般人員,新竹市政府,,,121,,,活動日期、活動地點、活動名稱、主（承）辦單位,,新竹 市立 體育場 所屬 運動場館 租借 及 使用 情形
246,新竹市立體育場所屬運動場館,市立體育場/一般人員,新竹市政府,,,11,,,場館名稱、地址、電話、開放時間、費用、備註、座標,,新竹 市立 體育場 所屬 運動場館
247,新竹市公廁地點資訊,城市行銷處/觀光維護科,新竹市政府,,,44,,,編號、公廁名稱、男廁小便斗、男廁馬桶坐式、男廁馬桶蹲式、女廁馬桶坐式、女廁馬桶蹲式、殘障廁所、育嬰台、接管資料,,新竹市 公廁 地點 資訊
248,新竹市觀光景點清單,城市行銷處/整合行銷科,新竹市政府,,,61,,,序號、景點名稱、地址、景點介紹,,新竹市 觀光 景點 清單
249,新竹市合法旅館資料名冊,城市行銷處/整合行銷科,新竹市政府,,,61,,,序號、統一登記證編碼、旅館名稱、電話、營業地址、房間總數、最低價格、最高價格、設有對外營業之餐飲業、星級評鑑、環保標章,,新竹市 合法 旅館 資料 名冊
250,新竹市旅遊服務中心與借問站據點,城市行銷處/整合行銷科,新竹市政府,,,0,,,序號、名稱、區域、地址、緯度、經度、電話、開放時間,,新竹市 旅遊 服務 中心 與 借問站 據點
251,新竹市公園管理維護地點,城市行銷處/觀光維護科,新竹市政府,,,152,,,名稱 編號 地點 區別 里別 面積,,新竹市 公園 管理 維護 地點
252,新竹市主要道路喬木植栽,城市行銷處/觀光維護科,新竹市政府,,,26,,,路段 分隔島植栽 人行道植栽 路邊植栽(無人行道),,新竹市 主要 道路 喬木 植栽
253,新竹市苗圃園區,城市行銷處/觀光維護科,新竹市政府,,,0,,,苗圃園區位址,,新竹市 苗圃 園區
254,新竹市歷屆十大伴手禮,城市行銷處/整合行銷科,新竹市政府,,,71,,,屆別、得獎產品名稱、店家名稱、地址、電話、網頁,,新竹市 歷屆 十大 伴手禮
255,新竹市歷屆非吃不可美食,城市行銷處/整合行銷科,新竹市政府,,,86,,,屆別、得獎產品名稱、店家名稱、地址、電話、網頁,,新竹市 歷屆 非 吃 不可 美食
256,公園綠地認養資料,城市行銷處/觀光維護科,新竹市政府,,,25,,,序號、認養場地、認養機關團體、認養期限,,公園 綠地 認養 資料
257,新竹市重要遊憩據點遊客人次統計,城市行銷處/整合行銷科,新竹市政府,,,36,,,年、月、各遊憩據點,,新竹市 重要 遊憩 據點 遊客 人次 統計
258,新竹火車站旅遊服務中心諮詢服務人次,城市行銷處/整合行銷科,新竹市政府,,,18,,,年、月、人次,,新竹 火車站 旅遊 服務 中心 諮詢 服務 人次
259,青草湖水域遊憩區告示牌,城市行銷處/整合行銷科,新竹市政府,,,2,,,序號、告示牌文字、緯度、經度、圖片URL,,青草湖 水域 遊憩區 告示牌
260,新竹市旅賓館住宿率,城市行銷處/整合行銷科,新竹市政府,,,24,,,年、月、種類、客房住用數、客房住用率、平均房價、客房收入,,新竹市 旅 賓館 住宿率
261,新竹市免費公車預估到站時刻表,交通處/大眾運輸科,新竹市政府,,,0,,,路線編號、起訖站、平/假日、站名、班次,,新竹市 免費 公車 預估 到站 時刻表
262,新竹市大客車注意之路段及時段表,交通處/交通工程與管理科,新竹市政府,,,2,,,縣市別、鄉鎮市區、路線路名、管制通行措施、路況概述,,新竹市 大客車 注意 之 路段 及 時段 表
263,新竹市公有停車場相關資訊,交通處/停車場管理科,新竹市政府,,,0,,,公有停車場名稱、地址、停車費、營運時間,,新竹市 公有 停車場 相關 資訊
264,新竹市政府自行車道建置資料總表,交通處/綜合規劃科,新竹市政府,,,5,,,年度、名稱、路線長度(公里)、起點、終點、有無串連其他自行車道,,新竹市 政府 自行車道 建置 資料 總表
265,新竹市機動車輛登記數,交通處/綜合規劃科,新竹市政府,,,208,,,年月、汽車、大客車、大貨車、小客車、小貨車、特種車、機車、機車重型、機車輕型,,新竹市 機動 車輛 登記數
266,新竹市載運砂石大貨(拖)車進入市區開放行駛路線,交通處/交通工程與管理科,新竹市政府,,,29,,,編號、道路名稱、備註,,新竹市 載運 砂石 大 貨 ( 拖 ) 車 進入 市區 開放 行駛 路線
267,新竹市易塞車路段資訊,交通處/交通工程與管理科,新竹市政府,,,0,,,係提供本市塞車路段及時段供民眾參考,,新竹市 易 塞車 路段 資訊
268,新竹市公車站牌資訊,交通處/大眾運輸科,新竹市政府,,,0,,,路線名稱、站名、地址,,新竹市 公車站牌 資訊
269,新竹市市區公車運量,交通處/大眾運輸科,新竹市政府,,,1420,,,客運公司、路線別、起站、訖站、營業行車次數、客運人數,,新竹市 市區 公車 運量
270,新竹市公共自行車租賃系統(YouBike),交通處/綜合規劃科,新竹市政府,,,0,,,站點名稱、位置、經度、緯度、圖片URL,,新竹市 公共 自行車 租賃 系統 ( YouBike )
271,新竹市號誌化路口,交通處/交通工程與管理科,新竹市政府,,,0,,,編號、路口名稱,,新竹市 號誌 化 路口
272,新竹市公共自行車租賃系統(YouBike)使用資料,交通處/綜合規劃科,新竹市政府,,,764,,,所屬年月、場站編號、場站名稱、1日、2日、3日、4日、5日、6日、7日、8日、9日、10日、11日、12日、13日、14日、15日、16日、17日、18日、19日、20日、21日、22日、23日、24日、25日、26日、27日、28日、29日、30日、31日、合計、平均、占比、排名,,新竹市 公共 自行車 租賃 系統 ( YouBike ) 使用 資料
276,新竹市都市設計審議統計資料,都市發展處/都市設計與開發科,新竹市政府,,,1,,,各年度會議次數、審議案件數量、通過案件數量,,新竹市 都市 設計 審議 統計 資料
277,新竹市公共設施保留地容積移轉執行成果,都市發展處/都市設計與開發科,新竹市政府,,,13,,,95~107容積移轉統計,,新竹市 公共 設施 保留地 容積 移轉 執行 成果
278,新竹市各都市計畫定位願景,都市發展處/綜合規劃科,新竹市政府,,,5,,,願景 整併,,新竹市 各 都市 計畫 定位 願景
279,新竹市動物園動物資料,市立動物園/一般人員,新竹市政府,,,19,,,編號、動物名稱、英文名、學名、分類,,新竹市 動物園 動物 資料
280,新竹市立動物園門票收入及入園人數統計表,市立動物園/一般人員,新竹市政府,,,29,,,年度、月份、3D收入、門票款(不含3D)收入、悠遊卡收入、3D門票(50元)人數、現金買票人數、悠遊卡刷卡人數、當年度合計購票入園人數、當年度累計購票入園人數,,新竹 市立 動物園 門票 收入 及 入園 人數 統計表
281,新竹市立動物園3D電影使用及遊園導覽人次統計表,市立動物園/一般人員,新竹市政府,,,29,,,年度、月份、3D電影使用人次、遊園導覽人次,,新竹 市立 動物園 3D 電影 使用 及 遊園 導覽 人次 統計表
