編號,資料集名稱,資料來源(部會單位),第一層級,第二層級,第三層級,資料量,下載次數,瀏覽次數,主要欄位,最後更新時間,資料集 名稱
1,臺灣屏東地方法院104年度預算案,臺灣屏東地方法院,屏東縣政府,,,,54,899,科目名稱、本年度預算數、上年度預算數、本年度與上年度比較、說明、預算金額、承辦單位、項目內容、法令依據、計畫內容、預期成果,,臺灣 屏東 地方 法院 104 年度 預算案
2,臺灣屏東地方法院104年度法定預算,臺灣屏東地方法院,屏東縣政府,,,,56,863,科目名稱、本年度預算數、上年度預算數、本年度與上年度比較、說明、預算金額、承辦單位、項目內容、法令依據、計畫內容、預期成果,,臺灣 屏東 地方 法院 104 年度 法定 預算
3,103年度臺灣屏東地方法院單位決算,臺灣屏東地方法院,屏東縣政府,,,,32,648,103年度臺灣屏東地方法院單位決算,,103 年度 臺灣 屏東 地方 法院 單位 決算
4,臺灣屏東地方法院104年1-6月會計月報,臺灣屏東地方法院,屏東縣政府,,,,41,1259,經費類平衡表、經費類現金出納表、經費累計表歲入累平衡表、歲入類現金出納表、歲入累計表、以前年度保留數餘額表,,臺灣 屏東 地方 法院 104 年 1 - 6 月 會計 月報
5,104年7月台灣屏東地方法院會計月報,臺灣屏東地方法院,屏東縣政府,,,,21,855,經費類及歲入類平衡表、經費及歲入現金出納表、經費及歲入累計表、以前年度歲入保留數餘額表,,104 年 7 月 台灣 屏東 地方 法院 會計 月報
6,臺灣屏東地方法院105年度預算案,臺灣屏東地方法院,屏東縣政府,,,,32,635,科目名稱、本年度預算數、上年度預算數、本年度與上年度比較、說明、預算金額、承辦單位、項目內容、法令依據、計畫內容、預期成果,,臺灣 屏東 地方 法院 105 年度 預算案
7,臺灣屏東地方法院104年度會計月報,臺灣屏東地方法院,屏東縣政府,,,,216,823,經費類平衡表、經費類現金出納表、經費累計表、歲入類平衡表、歲入類現金出納表、歲入累計表、以前年度歲入保留數餘額表,,臺灣 屏東 地方 法院 104 年度 會計 月報
8,臺灣屏東地方法院105年度法定預算,臺灣屏東地方法院,屏東縣政府,,,,25,465,科目名稱、本年度預算數、上年度預算數、本年度與上年度比較、說明、預算金額、承辦單位、項目內容、法令依據、計畫內容、預期成果,,臺灣 屏東 地方 法院 105 年度 法定 預算
9,臺灣屏東地方法院105年度會計月報,臺灣屏東地方法院,屏東縣政府,,,,188,459,歲入累計表、經費累計表等13表,,臺灣 屏東 地方 法院 105 年度 會計 月報
10,104年度臺灣屏東地方法院單位決算,臺灣屏東地方法院,屏東縣政府,,,,15,540,104年度臺灣屏東地方法院單位決算,,104 年度 臺灣 屏東 地方 法院 單位 決算
11,臺灣屏東地方法院106年度預算案,臺灣屏東地方法院,屏東縣政府,,,,37,498,科目名稱、本年度預算數、上年度預算數、本年度與上年度比較、說明、預算金額、承辦單位、項目內容、法令依據、計畫內容、預期成果,,臺灣 屏東 地方 法院 106 年度 預算案
12,臺灣屏東地方法院106年度會計報告,臺灣屏東地方法院,屏東縣政府,,,,2,104,歲入累計表、經費累計表、平衡表、資本資產表等報表,,臺灣 屏東 地方 法院 106 年度 會計 報告
13,臺灣屏東地方法院106年度法定預算,臺灣屏東地方法院,屏東縣政府,,,,1,67,科目名稱、本年度預算數、上年度預算數、本年度與上年度比較、說明、預算金額、承辦單位、項目內容、法令依據、計畫內容、預期成果,,臺灣 屏東 地方 法院 106 年度 法定 預算
14,臺灣屏東地方法院105年度單位決算,臺灣屏東地方法院,屏東縣政府,,,,2,55,臺灣屏東地方法院105年度單位決算,,臺灣 屏東 地方 法院 105 年度 單位 決算
15,臺灣屏東地方法院106年7月會計報告,臺灣屏東地方法院,屏東縣政府,,,,7,73,,,臺灣 屏東 地方 法院 106 年 7 月 會計 報告
16,臺灣屏東地方法院107年度預算案,臺灣屏東地方法院,屏東縣政府,,,,5,86,,,臺灣 屏東 地方 法院 107 年度 預算案
17,臺灣屏東地方法院106年8月會計報告,臺灣屏東地方法院,屏東縣政府,,,,3,84,,,臺灣 屏東 地方 法院 106 年 8 月 會計 報告
18,屏東縣政府暨所轄鄉鎮市公所公共債務情形,屏東縣政府,屏東縣政府,,,,17,106,1年以上債務未償餘額、短期債務未償餘額、平均每人負擔債務、自償性債務未償餘額（含非營業特種基金,,屏東縣 政府 暨 所轄 鄉鎮市 公所 公共 債務 情形
19,臺灣屏東地方法院106年9月會計報告,臺灣屏東地方法院,屏東縣政府,,,,0,30,,,臺灣 屏東 地方 法院 106 年 9 月 會計 報告
20,臺灣屏東地方法院106年10月會計報告,臺灣屏東地方法院,屏東縣政府,,,,0,35,,,臺灣 屏東 地方 法院 106 年 10 月 會計 報告
21,屏東縣政府縣政信箱1999資訊,屏東縣政府,屏東縣政府,,,,10,86,縣市名稱、縣市內1999電話、縣市外1999電話、縣市市政信箱網頁、縣市市政電子郵件信箱地址,,屏東縣 政府 縣政 信箱 1999 資訊
22,臺灣屏東地方法院106年11月會計報告,臺灣屏東地方法院,屏東縣政府,,,,1,31,,,臺灣 屏東 地方 法院 106 年 11 月 會計 報告
23,臺灣屏東地方法院106年12月會計報告,臺灣屏東地方法院,屏東縣政府,,,,0,35,,,臺灣 屏東 地方 法院 106 年 12 月 會計 報告
24,臺灣屏東地方法院107年1月會計報告,臺灣屏東地方法院,屏東縣政府,,,,1,51,,,臺灣 屏東 地方 法院 107 年 1 月 會計 報告
25,臺灣屏東地方法院107年度法定預算,臺灣屏東地方法院,屏東縣政府,,,,0,46,款、項、目、節、科目名稱、預算科目編號、人事費、業務費_經、奬補助費_經、債務費、預備金_經、經常支出小計、業務費_資、設備及投資、奬補助費_資、預備金_資、資本支出小計、合計、職能別分類經濟性分類、消費支出_經、債務利息_經、補助地方_經、移轉民間_經、小計_經、資本形成_資、土地購入_資、增資_資、補助地方_資、移轉民間_資、小計_資、總計,,臺灣 屏東 地方 法院 107 年度 法定 預算
26,臺灣屏東地方法院107年2月會計報告,臺灣屏東地方法院,屏東縣政府,,,,0,34,,,臺灣 屏東 地方 法院 107 年 2 月 會計 報告
27,臺灣屏東地方法院107年3月會計報告,臺灣屏東地方法院,屏東縣政府,,,,0,23,,,臺灣 屏東 地方 法院 107 年 3 月 會計 報告
28,臺灣屏東地方法院106年度單位決算,臺灣屏東地方法院,屏東縣政府,,,,3,27,,,臺灣 屏東 地方 法院 106 年度 單位 決算
29,臺灣屏東地方檢察署107年度會計報告,臺灣屏東地方檢察署,屏東縣政府,,,,0,38,會計年度、月份、款、項、目、節、預算年度、預算科目編號、預算科目名稱、細目編號、細目名稱、原預算數、追加減數、截至本月止累計分配數_1、本月實現數、截至本月止累計實現數_2、應收收入數_3、分配數預算餘額_4、分支計畫編號、分支計畫名稱、用途別編號、用途別名稱、第一預備金、第二預備金、經費流用數、預算調整數、應付數、已分配尚未執行數、備註_預暫付數、以前年度轉入數、應收數、保留數、減免、截至本月止累計實現數、調整數、尚未執行數、基金別、會計分類、使用機關別、科目分類、會計科目編號、會計科目名稱、金額、科目名稱、取得成本、以前年度累計折舊_長期投資評價、本年度資本資產成本變動_增加數、本年度資本資產成本變動_減少數、本年度累計折舊_長期投資評價變動數、期末帳面金額、備註、業務計畫或工作計畫、經資門、執行數、項目、收入實現數、減項_收入待納庫數、加項_以前年度待納庫繳庫數、加項_以前年度撥款於本年度繳還數_材料、加項_以前年度撥款於本年度繳還數_存出保證金、加項_以前年度撥款於本年度繳還數_其他應收款、加項_預收款、加項_剔除經費、繳付公庫數、一級用途別編號、一級用途別名稱、支出實現數、加項_預付款、加項_材料、加項_存出保證金、加項_零用金、加項_退還收入預收款、加項_其他應收款、減項_以前年度撥款於本年度實現數、公庫撥入數、公庫分配數餘額、金額_本月數、金額_累計數,,臺灣 屏東 地方 檢察署 107 年度 會計 報告
30,臺灣屏東地方法院107年4月會計報告,臺灣屏東地方法院,屏東縣政府,,,,1,23,,,臺灣 屏東 地方 法院 107 年 4 月 會計 報告
31,臺灣屏東地方法院107年5月會計報告,臺灣屏東地方法院,屏東縣政府,,,,1,17,,,臺灣 屏東 地方 法院 107 年 5 月 會計 報告
32,屏東縣火災統計分析表,屏東縣政府消防局,屏東縣政府,,,,3,7,Type(火災類型)、Quantity(數量),,屏東縣 火災 統計 分析表
33,屏東縣曾發生溺水事故水域清冊,屏東縣政府消防局,屏東縣政府,,,,0,3,years(年份)、town(鄉鎮)、location(地點),,屏東縣 曾 發生 溺水 事故 水域 清冊
34,屏東縣消防分隊駐地名冊,屏東縣政府消防局,屏東縣政府,,,,0,4,Unit(單位名稱)、Address(地址)、Phone number(電話),,屏東縣 消防 分隊 駐地 名冊
35,警察局及所屬分駐派出所,屏東縣政府警察局,屏東縣政府,,,,3,6,unit(單位)、postal code(郵遞區號)、address(地址)、tel(電話)、point_X(點位X軸)、point_Y(點位Y軸),,警察局 及 所屬 分駐 派出所
36,警察局年度預、決算資料,屏東縣政府警察局,屏東縣政府,,,,0,4,年度、經常門預算、經常門決算、資本門預算、資本門決算、歲入預算、歲入決算  ,,警察局 年度 預 、 決算 資料
37,社區治安會議辦理情形統計,屏東縣政府警察局,屏東縣政府,,,,1,5,event(場次)、time(會議時間)、organizer(召開單位)、attendance(與會人數)、  ,,社區 治安 會議 辦理 情形 統計
38,屏東縣政府警察局建置路口錄監系統設置地點,屏東縣政府警察局,屏東縣政府,,,,0,5,number(編號)、towns(鄉鎮)、location(路口)、Camera lens Quantity(監視器數量)、  ,,屏東縣 政府 警察局 建置 路口 錄監 系統 設置 地點
39,受理失蹤人口數及查獲失蹤人口數,屏東縣政府警察局,屏東縣政府,,,,0,5,105年、1月受理數、1月查獲數、2月受理數、2月查獲數、3月受理數、3月查獲數、4月受理數、4月查獲數、5月受理數	5月查獲數、6月受理數、6月查獲數  ,,受理 失蹤 人口數 及 查獲 失蹤 人口數
40,屏東縣交通肇事案件資料,屏東縣政府警察局,屏東縣政府,,,,7,8,number(編號)、location(地點)、Item(件數),,屏東縣 交通 肇事 案件 資料
41,高危險性性侵害加害人人數統計,屏東縣政府警察局,屏東縣政府,,,,1,5,month(月份)、county(縣)、number of people(公告人數)、add(新增人數),,高 危險性 性侵害 加害人 人數 統計
42,易發生婦幼被害犯罪地點,屏東縣政府警察局,屏東縣政府,,,,1,6,location(位置)、Jurisdiction(管轄分局),,易 發生 婦幼 被害 犯罪 地點
43,屏東縣轄內固定測速照相系統設置地點一覽表,屏東縣政府警察局,屏東縣政府,,,,0,4,no.(編號)、position(位置)、Jurisdiction(轄區)、Speed limit(速限),,屏東縣 轄內 固定 測速 照相 系統 設置 地點 一覽表
44,臺灣屏東地方法院107年6月會計報告,臺灣屏東地方法院,屏東縣政府,,,,0,7,,,臺灣 屏東 地方 法院 107 年 6 月 會計 報告
45,屏東縣抗病毒藥劑合約院所清冊,屏東縣政府衛生局,屏東縣政府,,,,0,2,Ten yards（十碼章）、Name of Hospital（醫院名稱）、City and county（縣市別）、Administrative district（行政區）、Postal code（郵遞區號）、address（地址）、Contact telephone number（連絡電話）、latitude(緯度)、longitude(經度)、Remarks(備註),,屏東縣 抗病毒藥 劑 合約 院所 清冊
46,哺集乳室,屏東縣政府衛生局,屏東縣政府,,,,0,2,哺集乳室場所名稱、城市、場所地址、電話、開放時段、登記使用注意事項、備註,,哺集乳室
47,屏東縣流感疫苗接種合約院所,屏東縣政府衛生局,屏東縣政府,,,,0,3,Ten yards（十碼章）、Name of Hospital（醫院名稱）、City and county（縣市別）、Administrative district（行政區）、Postal code（郵遞區號）、address（地址）、Contact telephone number（連絡電話）,,屏東縣 流感 疫苗 接種 合約 院所
48,長期照顧十年計畫-居家托顧服務提供單位名單,屏東縣政府衛生局,屏東縣政府,,,,0,2,服務區域 承接單位 地址 托顧家庭執行區域 電話  ,,長期 照顧 十年 計畫 - 居家 托顧 服務 提供 單位 名單
49,長期照顧十年計畫-日間照顧服務提供單位名單,屏東縣政府衛生局,屏東縣政府,,,,0,2,服務區域 承接單位 辦理地點 機構地址 日照中心地址 電話  ,,長期 照顧 十年 計畫 - 日間 照顧 服務 提供 單位 名單
50,屏東縣居家護理所基本資料,屏東縣政府衛生局,屏東縣政府,,,,0,2,no(序號)、Agency(機構名稱)、Person in charge(負責人)、tel(電話)、ext.(分機)、Postal Code(郵遞區號)、address(機構地址)、 ,,屏東縣 居家 護理 所 基本 資料
51,屏東縣ㄧ般護理之家基本資料,屏東縣政府衛生局,屏東縣政府,,,,0,2,no(序號)、Agency(機構名稱)、Person in charge(負責人)、tel(電話)、address(機構地址),,屏東縣 ㄧ 般 護理 之 家 基本 資料
52,屏東縣「申請聘僱外國人從事家庭看護工作之專業評估被看護者醫療機構」,屏東縣政府衛生局,屏東縣政府,,,,0,3,醫療機構名稱、醫療機構地址、聯絡電話,,屏東縣 「 申請 聘僱 外國人 從事 家庭 看護 工作 之 專業 評估 被 看護 者 醫療 機構 」
53,屏東縣長照樂智社區服務據點,屏東縣政府衛生局,屏東縣政府,,,,0,2,單位名稱 聯絡電話,,屏東縣 長照 樂智 社區 服務 據點
54,屏東縣照顧服務員訓練班次,屏東縣政府衛生局,屏東縣政府,,,,0,3,承訓單位 班數 訓練時數 班次類別 班別名稱 開訓日期 結訓日期 預訓人數 上課地點 洽詢電話  ,,屏東縣 照顧 服務員 訓練 班次
55,屏東縣長期照護管理中心聯絡方式,屏東縣政府衛生局,屏東縣政府,,,,0,2,單位名稱 電話 傳真 地址,,屏東縣 長期 照護 管理 中心 聯絡 方式
56,長期照顧十年計畫-居家服務提供單位名單,屏東縣政府衛生局,屏東縣政府,,,,0,3,執行區域 鄉鎮別 服務提供單位名稱 電話  ,,長期 照顧 十年 計畫 - 居家 服務 提供 單位 名單
57,長期照顧十年計畫-輔具租借 購買及無障礙環境改善服務提供單位名單,屏東縣政府衛生局,屏東縣政府,,,,0,2,區別 服務鄉鎮 服務提供單位 電話  ,,長期 照顧 十年 計畫 - 輔具 租借   購買 及 無 障礙 環境 改善 服務 提供 單位 名單
58,長期照顧十年計畫- 老人營養餐飲服務提供單位名單,屏東縣政府衛生局,屏東縣政府,,,,0,3,區別 服務鄉鎮 服務提供單位 聯絡電話,,長期 照顧 十年 計畫 -   老人 營養 餐飲 服務 提供 單位 名單
59,長期照顧十年計畫-交通接送服務提供單位名單,屏東縣政府衛生局,屏東縣政府,,,,0,4,區別 服務鄉鎮 負責租車公司 聯絡電話  ,,長期 照顧 十年 計畫 - 交通 接送 服務 提供 單位 名單
60,長期照顧十年計畫-居家護理服務提供單位名單,屏東縣政府衛生局,屏東縣政府,,,,0,2,區域 鄉鎮名 服務單位 電話  ,,長期 照顧 十年 計畫 - 居家 護理 服務 提供 單位 名單
61,長期照顧十年計畫-喘息服務提供單位名單,屏東縣政府衛生局,屏東縣政府,,,,0,2,區域 鄉鎮名 服務提供單位名稱 電話  ,,長期 照顧 十年 計畫 - 喘息 服務 提供 單位 名單
62,長期照顧十年計畫-居家(社區)復健服務提供單位名單,屏東縣政府衛生局,屏東縣政府,,,,0,2,區域 鄉鎮名 服務單位 電話  ,,長期 照顧 十年 計畫 - 居家 ( 社區 ) 復健 服務 提供 單位 名單
63,居家營養服務提供單位名單,屏東縣政府衛生局,屏東縣政府,,,,0,2,服務提供單位名稱 承辦人 電話  ,,居家 營養 服務 提供 單位 名單
64,長期照顧十年計畫-長期照顧機構服務提供單位名單,屏東縣政府衛生局,屏東縣政府,,,,1,4,Township(鄉鎮市別)、 address(機關地址)、 tel.(電話)、  ,,長期 照顧 十年 計畫 - 長期 照顧 機構 服務 提供 單位 名單
65,屏東縣出院準備服務業務各醫院聯絡窗口,屏東縣政府衛生局,屏東縣政府,,,,0,2,醫院名稱 姓名 聯絡電話(辦公室)、 傳真 住址		  ,,屏東縣 出院 準備 服務 業務 各 醫院 聯絡 窗口
66,居家藥事服務提供單位名單,屏東縣政府衛生局,屏東縣政府,,,,0,2,服務提供單位名稱 電話  ,,居家 藥事 服務 提供 單位 名單
67,屏東縣克流感抗病毒藥劑合約配置點,屏東縣政府衛生局,屏東縣政府,,,,0,3,Ten yards（十碼章）、Name of Hospital（醫院名稱）、City and county（縣市別）、Administrative district（行政區）、Postal code（郵遞區號）、address（地址）、Contact telephone number（連絡電話）,,屏東縣 克 流感 抗病毒藥 劑 合約 配置 點
68,屏東縣醫院確診相關資訊,屏東縣政府衛生局,屏東縣政府,,,,1,4,醫院名稱、項目、子宮頸抹片、乳房攝影、腸篩、口篩、無痛大腸鏡的提供  ,,屏東縣 醫院 確診 相關 資訊
69,二代戒菸合約院所,屏東縣政府衛生局,屏東縣政府,,,,0,2,二代戒菸合約院所名稱、地址、電話,,二代 戒菸 合約 院所
70,「非職業暴露愛滋病毒後預防性投藥」之醫院名單,屏東縣政府衛生局,屏東縣政府,,,,0,2,名單縣市、醫院名稱、門診提供時間、急診是否提供該項服務,,「 非 職業 暴露 愛滋 病毒 後 預防性 投藥 」 之 醫院 名單
71,屏東縣政府衛生局預防愛滋衛教諮詢服務計畫-執行點設置地點,屏東縣政府衛生局,屏東縣政府,,,,0,2,序號、地區、分類、清潔針具執行點名稱、地址、服務時間,,屏東縣 政府 衛生局 預防 愛滋 衛教 諮詢 服務 計畫 - 執行 點 設置 地點
72,屏東縣政府衛生局預防愛滋衛教諮詢服務計畫-保險套販賣機設置地點,屏東縣政府衛生局,屏東縣政府,,,,0,2,序號、地區、安裝地點、地址、價格、服務時間,,屏東縣 政府 衛生局 預防 愛滋 衛教 諮詢 服務 計畫 - 保險套 販賣機 設置 地點
73,屏東縣政府衛生局預防愛滋衛教諮詢服務計畫-自動服務機設置地點,屏東縣政府衛生局,屏東縣政府,,,,0,2,序號、地區、安裝地點、地址、價格、服務時間,,屏東縣 政府 衛生局 預防 愛滋 衛教 諮詢 服務 計畫 - 自動 服務機 設置 地點
74,屏東縣政府衛生局預防愛滋衛教諮詢服務計畫-回收桶設置地點,屏東縣政府衛生局,屏東縣政府,,,,0,3,序號、地區、安裝地點、地址,,屏東縣 政府 衛生局 預防 愛滋 衛教 諮詢 服務 計畫 - 回收桶 設置 地點
75,屏東公共自行車即時租賃站資訊,屏東縣政府環境保護局,屏東縣政府,,,,0,3,租賃站名稱 租賃站地址 緯度 經度 交通資訊 目前數量 尚餘空位,,屏東 公共 自行車 即時 租賃站 資訊
76,屏東縣各鄉鎮市公共廁所位置表,屏東縣政府環境保護局,屏東縣政府,,,,0,2,鄉鎮市別 序號 公廁名稱 公廁位址,,屏東縣 各 鄉鎮市 公共 廁所 位置 表
77,屏東縣政府環保局洗街作業路段,屏東縣政府環境保護局,屏東縣政府,,,,0,4,Road name(路名)、Starting and ending (起迄點)、Road length(道路長度)、Sweep times(洗街頻率)、Sweep frequency(洗街次數)、Total Swept Length(總洗街長度),,屏東縣 政府 環保局 洗街 作業 路段
78,街道髒污等級普查,屏東縣政府環境保護局,屏東縣政府,,,,0,3,Road name(路名)、Starting and ending (起迄點)、Road length(道路長度)、Dirt rating(髒污等級),,街道 髒污 等級 普查
79,屏東縣各鄉鎮空品淨化區設置成果,屏東縣政府環境保護局,屏東縣政府,,,,0,3,number(編號)、township(鄉鎮)、longitude(經度座標)、latitude緯度座標、plan(計畫)、area(面積),,屏東縣 各 鄉鎮 空品 淨化區 設置 成果
80,屏東縣環境教育設施場所,屏東縣政府環境保護局,屏東縣政府,,,,0,3,Name(名稱)、Address(地址)、Tel(電話),,屏東縣 環境 教育 設施 場所
81,屏東縣星級環保餐館,屏東縣政府環境保護局,屏東縣政府,,,,0,2,Name(旅店名稱)、TEL(電話)、Address(地址),,屏東縣 星級 環保 餐館
82,屏東縣綠色商店,屏東縣政府環境保護局,屏東縣政府,,,,2,3,Name(商店名稱)、TEL(電話)、Address(地址),,屏東縣 綠色 商店
83,柴油車檢測預約申請,屏東縣政府環境保護局,屏東縣政府,,,,0,3,name(站名)、Postal code(郵遞區號)、address(地址)、telephone number(預約電話)、time(時間)、contact person(聯絡人)、  ,,柴油車 檢測 預約 申請
84,屏東縣墾丁空品淨區位置,屏東縣政府環境保護局,屏東縣政府,,,,0,3,name(名稱)、address(地址)、longitude(緯度座標)、latitude(經度座標)、  ,,屏東縣 墾丁 空品 淨區 位置
85,屏東縣政府環境保護局柴油車動力檢測站位置,屏東縣政府環境保護局,屏東縣政府,,,,0,3,name(測站名稱)、Postal code(郵遞區號)、address(地址)、telephone number(電話)、longitude(緯度座標)、latitude(經度座標),,屏東縣 政府 環境 保護 局 柴油車 動力 檢測站 位置
86,屏東縣電動二輪車充電站,屏東縣政府環境保護局,屏東縣政府,,,,0,2,NO.(序號)、NAME(定檢站名稱)、ADDRESS(地址),,屏東縣 電動 二 輪車 充電站
87,屏東縣機車排氣檢驗站,屏東縣政府環境保護局,屏東縣政府,,,,0,5,NO.(序號)、NAME(定檢站名稱)、ADDRESS(地址),,屏東縣 機車 排氣 檢驗站
88,屏東縣環保旅店,屏東縣政府環境保護局,屏東縣政府,,,,0,3,Name(旅店名稱)、TEL(電話)、Address(地址),,屏東縣 環保 旅店
